<svg width="112" height="177" viewBox="0 0 112 177" fill="none" xmlns="http://www.w3.org/2000/svg">
<path id="Rectangle 14" d="M0 0H111.609V101.957C111.609 143.379 78.0305 176.957 36.6091 176.957H0V0Z" fill="#B3E3FF"/>
</svg>
